BBBBBB   YYY   Y  TTTTTTT  EEEEEEE
BBB   B  YYY   Y    TTT    EEE
BBB   B  YYY   Y    TTT    EEE
BBBBBB    YYY Y     TTT    EEEEEEE
BBB   B    YYY      TTT    EEE
BBB   B    YYY      TTT    EEE
BBBBBB     YYY      TTT    EEEEEEE


BYTEmark (tm) Native Mode Benchmark ver. 2 (10/95)

Original AMD K6-233 index by Andrew D. Balsa (11/97)
Pentium III 1GHz index by Patryk Jakubowski (01/2007)
Linux/Unix* port by Uwe F. Mayer (12/96,11/97)

TEST                : Iterations/sec.  : Orig Index  : New Index
                    :                  : AMD K6/233* : PIII 1GHz*
--------------------:------------------:-------------:------------
NUMERIC SORT        :          1040.7  :        8.8  :        2.3
STRING SORT         :          641.85  :       44.4  :       14.9
BITFIELD            :      4.3992e+08  :       15.8  :        2.6
FP EMULATION        :          241.32  :       26.7  :        3.1
FOURIER             :           22413  :       14.3  :        2.3
ASSIGNMENT          :          42.948  :       42.4  :        4.5
IDEA                :          6135.9  :       27.9  :        5.3
HUFFMAN             :          2561.8  :       22.7  :        3.5
NEURAL NET          :          52.153  :       35.2  :        4.5
LU DECOMPOSITION    :          1879.5  :       70.3  :        4.1
==========================ORIGINAL AMD K6/233 RESULTS========================
INTEGER INDEX       : 23.851
FLOATING-POINT INDEX: 32.856
Baseline (LINUX*)   : AMD K6/233, 512 KB L2-cache, gcc 2.7.2, libc-5.4.38
==============================LINUX DATA BELOW===============================
CPU                 : 8 CPU GenuineIntel Intel(R) Xeon(R) CPU           E5410  @ 2.33GHz 2333MHz
L2 Cache            : 6144 KB
OS                  : Linux 3.16.0-4-amd64
PIII 1GHz based MEMORY INDEX        : 5.6
PIII 1GHz based INTEGER INDEX       : 3.4
PIII 1GHz based FLOATING-POINT INDEX: 3.5
Baseline (LINUX)    : Pentium III 1GHz (133MHz FSB), 512 KB L2-cache, 60ns SDRAM, gcc 4.1.2, libc6 2.3.6
* Trademarks are property of their respective holder.
